{
  "formatVersion": 1,
  "database": {
    "version": 1,
    "identityHash": "e759f3b7ccb7707dbb7ed51b2ffd2e9c",
    "entities": [
      {
        "tableName": "User",
        "createSql": "CREATE TABLE IF NOT EXISTS `${TABLE_NAME}` (`id` TEXT NOT NULL, `name` TEXT, `phone` INTEGER, `email` TEXT, `password` TEXT, `rg` INTEGER, `client_cnpj` INTEGER, `role` TEXT, `certificate_number` TEXT, `user_preference_id` TEXT, `dt_created` INTEGER, `dt_modified` INTEGER, PRIMARY KEY(`id`))",
        "fields": [
          {
            "fieldPath": "id",
            "columnName": "id",
            "affinity": "TEXT",
            "notNull": true
          },
          {
            "fieldPath": "name",
            "columnName": "name",
            "affinity": "TEXT",
            "notNull": false
          },
          {
            "fieldPath": "phone",
            "columnName": "phone",
            "affinity": "INTEGER",
            "notNull": false
          },
          {
            "fieldPath": "email",
            "columnName": "email",
            "affinity": "TEXT",
            "notNull": false
          },
          {
            "fieldPath": "password",
            "columnName": "password",
            "affinity": "TEXT",
            "notNull": false
          },
          {
            "fieldPath": "rg",
            "columnName": "rg",
            "affinity": "INTEGER",
            "notNull": false
          },
          {
            "fieldPath": "client_cnpj",
            "columnName": "client_cnpj",
            "affinity": "INTEGER",
            "notNull": false
          },
          {
            "fieldPath": "role",
            "columnName": "role",
            "affinity": "TEXT",
            "notNull": false
          },
          {
            "fieldPath": "certificate_number",
            "columnName": "certificate_number",
            "affinity": "TEXT",
            "notNull": false
          },
          {
            "fieldPath": "user_preference_id",
            "columnName": "user_preference_id",
            "affinity": "TEXT",
            "notNull": false
          },
          {
            "fieldPath": "dt_created",
            "columnName": "dt_created",
            "affinity": "INTEGER",
            "notNull": false
          },
          {
            "fieldPath": "dt_modified",
            "columnName": "dt_modified",
            "affinity": "INTEGER",
            "notNull": false
          }
        ],
        "primaryKey": {
          "columnNames": [
            "id"
          ],
          "autoGenerate": false
        },
        "indices": [
          {
            "name": "index_User_id",
            "unique": false,
            "columnNames": [
              "id"
            ],
            "createSql": "CREATE INDEX IF NOT EXISTS `index_User_id` ON `${TABLE_NAME}` (`id`)"
          }
        ],
        "foreignKeys": []
      },
      {
        "tableName": "Role",
        "createSql": "CREATE TABLE IF NOT EXISTS `${TABLE_NAME}` (`id` TEXT NOT NULL, `description` TEXT, `dt_created` INTEGER, `dt_modified` INTEGER, PRIMARY KEY(`id`))",
        "fields": [
          {
            "fieldPath": "id",
            "columnName": "id",
            "affinity": "TEXT",
            "notNull": true
          },
          {
            "fieldPath": "description",
            "columnName": "description",
            "affinity": "TEXT",
            "notNull": false
          },
          {
            "fieldPath": "dt_created",
            "columnName": "dt_created",
            "affinity": "INTEGER",
            "notNull": false
          },
          {
            "fieldPath": "dt_modified",
            "columnName": "dt_modified",
            "affinity": "INTEGER",
            "notNull": false
          }
        ],
        "primaryKey": {
          "columnNames": [
            "id"
          ],
          "autoGenerate": false
        },
        "indices": [
          {
            "name": "index_Role_id",
            "unique": false,
            "columnNames": [
              "id"
            ],
            "createSql": "CREATE INDEX IF NOT EXISTS `index_Role_id` ON `${TABLE_NAME}` (`id`)"
          }
        ],
        "foreignKeys": []
      },
      {
        "tableName": "UserPreference",
        "createSql": "CREATE TABLE IF NOT EXISTS `${TABLE_NAME}` (`id` TEXT NOT NULL, `equipment_manufacturer_id` TEXT, `equipment_model_id` TEXT, `dt_created` INTEGER, `dt_modified` INTEGER, PRIMARY KEY(`id`), FOREIGN KEY(`equipment_manufacturer_id`) REFERENCES `EquipmentManufacturer`(`id`) ON UPDATE NO ACTION ON DELETE NO ACTION , FOREIGN KEY(`equipment_model_id`) REFERENCES `EquipmentModel`(`id`) ON UPDATE NO ACTION ON DELETE NO ACTION )",
        "fields": [
          {
            "fieldPath": "id",
            "columnName": "id",
            "affinity": "TEXT",
            "notNull": true
          },
          {
            "fieldPath": "equipment_manufacturer_id",
            "columnName": "equipment_manufacturer_id",
            "affinity": "TEXT",
            "notNull": false
          },
          {
            "fieldPath": "equipment_model_id",
            "columnName": "equipment_model_id",
            "affinity": "TEXT",
            "notNull": false
          },
          {
            "fieldPath": "dt_created",
            "columnName": "dt_created",
            "affinity": "INTEGER",
            "notNull": false
          },
          {
            "fieldPath": "dt_modified",
            "columnName": "dt_modified",
            "affinity": "INTEGER",
            "notNull": false
          }
        ],
        "primaryKey": {
          "columnNames": [
            "id"
          ],
          "autoGenerate": false
        },
        "indices": [
          {
            "name": "index_UserPreference_id",
            "unique": false,
            "columnNames": [
              "id"
            ],
            "createSql": "CREATE INDEX IF NOT EXISTS `index_UserPreference_id` ON `${TABLE_NAME}` (`id`)"
          },
          {
            "name": "index_UserPreference_equipment_manufacturer_id",
            "unique": false,
            "columnNames": [
              "equipment_manufacturer_id"
            ],
            "createSql": "CREATE INDEX IF NOT EXISTS `index_UserPreference_equipment_manufacturer_id` ON `${TABLE_NAME}` (`equipment_manufacturer_id`)"
          },
          {
            "name": "index_UserPreference_equipment_model_id",
            "unique": false,
            "columnNames": [
              "equipment_model_id"
            ],
            "createSql": "CREATE INDEX IF NOT EXISTS `index_UserPreference_equipment_model_id` ON `${TABLE_NAME}` (`equipment_model_id`)"
          }
        ],
        "foreignKeys": [
          {
            "table": "EquipmentManufacturer",
            "onDelete": "NO ACTION",
            "onUpdate": "NO ACTION",
            "columns": [
              "equipment_manufacturer_id"
            ],
            "referencedColumns": [
              "id"
            ]
          },
          {
            "table": "EquipmentModel",
            "onDelete": "NO ACTION",
            "onUpdate": "NO ACTION",
            "columns": [
              "equipment_model_id"
            ],
            "referencedColumns": [
              "id"
            ]
          }
        ]
      },
      {
        "tableName": "ReportFusion",
        "createSql": "CREATE TABLE IF NOT EXISTS `${TABLE_NAME}` (`id` TEXT NOT NULL, `code` TEXT, `user_id` TEXT, `user_name` TEXT, `user_latitude` REAL, `user_longitude` REAL, `dt_start` INTEGER, `description` TEXT, `climatic_description` TEXT, `climatic_humidity` REAL, `climatic_temperature` REAL, `material_1_type` TEXT, `material_2_type` TEXT, `material_1_manufacturer` TEXT, `material_2_manufacturer` TEXT, `material_1_external_diameter` INTEGER, `material_2_external_diameter` INTEGER, `material_1_resin_type` TEXT, `material_2_resin_type` TEXT, `material_1_pn` REAL, `material_2_pn` REAL, `material_1_sdr` REAL, `material_2_sdr` REAL, `material_1_lote_number` TEXT, `material_2_lote_number` TEXT, `material_1_lote_number_evidence` TEXT, `material_2_lote_number_evidence` TEXT, `material_1_rule` TEXT, `material_2_rule` TEXT, `equipment_manufacturer_name` TEXT, `equipment_model_name` TEXT, `equipment_serie_number` TEXT, `equipment_serie_number_evidence` TEXT, `equipment_dt_checked` INTEGER, `equipment_dt_checked_evidence` TEXT, `weld_pressure` REAL, `weld_pipe_wall` REAL, `weld_drag_pressure` INTEGER, `weld_initial_cord_height` REAL, `weld_heating_plate_temperature` REAL, `weld_heating_plate_temperature_evidence` TEXT, `weld_heating_total_time` REAL, `weld_cooling_total_time` REAL, `weld_plate_out_time` REAL, `weld_final_width_strings_side1` REAL, `weld_final_width_strings_side2` REAL, `weld_dt_process_start` INTEGER, `weld_dt_process_end` INTEGER, `equipment_condition` TEXT, `report_weld_approved` INTEGER, `dt_aborted` INTEGER, `aborted_report_reason` TEXT, `dt_finished` INTEGER, `dt_created` INTEGER, `dt_modified` INTEGER, PRIMARY KEY(`id`), FOREIGN KEY(`user_id`) REFERENCES `User`(`id`) ON UPDATE NO ACTION ON DELETE NO ACTION )",
        "fields": [
          {
            "fieldPath": "id",
            "columnName": "id",
            "affinity": "TEXT",
            "notNull": true
          },
          {
            "fieldPath": "code",
            "columnName": "code",
            "affinity": "TEXT",
            "notNull": false
          },
          {
            "fieldPath": "user_id",
            "columnName": "user_id",
            "affinity": "TEXT",
            "notNull": false
          },
          {
            "fieldPath": "user_name",
            "columnName": "user_name",
            "affinity": "TEXT",
            "notNull": false
          },
          {
            "fieldPath": "user_latitude",
            "columnName": "user_latitude",
            "affinity": "REAL",
            "notNull": false
          },
          {
            "fieldPath": "user_longitude",
            "columnName": "user_longitude",
            "affinity": "REAL",
            "notNull": false
          },
          {
            "fieldPath": "dt_start",
            "columnName": "dt_start",
            "affinity": "INTEGER",
            "notNull": false
          },
          {
            "fieldPath": "description",
            "columnName": "description",
            "affinity": "TEXT",
            "notNull": false
          },
          {
            "fieldPath": "climatic_description",
            "columnName": "climatic_description",
            "affinity": "TEXT",
            "notNull": false
          },
          {
            "fieldPath": "climatic_humidity",
            "columnName": "climatic_humidity",
            "affinity": "REAL",
            "notNull": false
          },
          {
            "fieldPath": "climatic_temperature",
            "columnName": "climatic_temperature",
            "affinity": "REAL",
            "notNull": false
          },
          {
            "fieldPath": "material_1_type",
            "columnName": "material_1_type",
            "affinity": "TEXT",
            "notNull": false
          },
          {
            "fieldPath": "material_2_type",
            "columnName": "material_2_type",
            "affinity": "TEXT",
            "notNull": false
          },
          {
            "fieldPath": "material_1_manufacturer",
            "columnName": "material_1_manufacturer",
            "affinity": "TEXT",
            "notNull": false
          },
          {
            "fieldPath": "material_2_manufacturer",
            "columnName": "material_2_manufacturer",
            "affinity": "TEXT",
            "notNull": false
          },
          {
            "fieldPath": "material_1_external_diameter",
            "columnName": "material_1_external_diameter",
            "affinity": "INTEGER",
            "notNull": false
          },
          {
            "fieldPath": "material_2_external_diameter",
            "columnName": "material_2_external_diameter",
            "affinity": "INTEGER",
            "notNull": false
          },
          {
            "fieldPath": "material_1_resin_type",
            "columnName": "material_1_resin_type",
            "affinity": "TEXT",
            "notNull": false
          },
          {
            "fieldPath": "material_2_resin_type",
            "columnName": "material_2_resin_type",
            "affinity": "TEXT",
            "notNull": false
          },
          {
            "fieldPath": "material_1_pn",
            "columnName": "material_1_pn",
            "affinity": "REAL",
            "notNull": false
          },
          {
            "fieldPath": "material_2_pn",
            "columnName": "material_2_pn",
            "affinity": "REAL",
            "notNull": false
          },
          {
            "fieldPath": "material_1_sdr",
            "columnName": "material_1_sdr",
            "affinity": "REAL",
            "notNull": false
          },
          {
            "fieldPath": "material_2_sdr",
            "columnName": "material_2_sdr",
            "affinity": "REAL",
            "notNull": false
          },
          {
            "fieldPath": "material_1_lote_number",
            "columnName": "material_1_lote_number",
            "affinity": "TEXT",
            "notNull": false
          },
          {
            "fieldPath": "material_2_lote_number",
            "columnName": "material_2_lote_number",
            "affinity": "TEXT",
            "notNull": false
          },
          {
            "fieldPath": "material_1_lote_number_evidence",
            "columnName": "material_1_lote_number_evidence",
            "affinity": "TEXT",
            "notNull": false
          },
          {
            "fieldPath": "material_2_lote_number_evidence",
            "columnName": "material_2_lote_number_evidence",
            "affinity": "TEXT",
            "notNull": false
          },
          {
            "fieldPath": "material_1_rule",
            "columnName": "material_1_rule",
            "affinity": "TEXT",
            "notNull": false
          },
          {
            "fieldPath": "material_2_rule",
            "columnName": "material_2_rule",
            "affinity": "TEXT",
            "notNull": false
          },
          {
            "fieldPath": "equipment_manufacturer_name",
            "columnName": "equipment_manufacturer_name",
            "affinity": "TEXT",
            "notNull": false
          },
          {
            "fieldPath": "equipment_model_name",
            "columnName": "equipment_model_name",
            "affinity": "TEXT",
            "notNull": false
          },
          {
            "fieldPath": "equipment_serie_number",
            "columnName": "equipment_serie_number",
            "affinity": "TEXT",
            "notNull": false
          },
          {
            "fieldPath": "equipment_serie_number_evidence",
            "columnName": "equipment_serie_number_evidence",
            "affinity": "TEXT",
            "notNull": false
          },
          {
            "fieldPath": "equipment_dt_checked",
            "columnName": "equipment_dt_checked",
            "affinity": "INTEGER",
            "notNull": false
          },
          {
            "fieldPath": "equipment_dt_checked_evidence",
            "columnName": "equipment_dt_checked_evidence",
            "affinity": "TEXT",
            "notNull": false
          },
          {
            "fieldPath": "weld_pressure",
            "columnName": "weld_pressure",
            "affinity": "REAL",
            "notNull": false
          },
          {
            "fieldPath": "weld_pipe_wall",
            "columnName": "weld_pipe_wall",
            "affinity": "REAL",
            "notNull": false
          },
          {
            "fieldPath": "weld_drag_pressure",
            "columnName": "weld_drag_pressure",
            "affinity": "INTEGER",
            "notNull": false
          },
          {
            "fieldPath": "weld_initial_cord_height",
            "columnName": "weld_initial_cord_height",
            "affinity": "REAL",
            "notNull": false
          },
          {
            "fieldPath": "weld_heating_plate_temperature",
            "columnName": "weld_heating_plate_temperature",
            "affinity": "REAL",
            "notNull": false
          },
          {
            "fieldPath": "weld_heating_plate_temperature_evidence",
            "columnName": "weld_heating_plate_temperature_evidence",
            "affinity": "TEXT",
            "notNull": false
          },
          {
            "fieldPath": "weld_heating_total_time",
            "columnName": "weld_heating_total_time",
            "affinity": "REAL",
            "notNull": false
          },
          {
            "fieldPath": "weld_cooling_total_time",
            "columnName": "weld_cooling_total_time",
            "affinity": "REAL",
            "notNull": false
          },
          {
            "fieldPath": "weld_plate_out_time",
            "columnName": "weld_plate_out_time",
            "affinity": "REAL",
            "notNull": false
          },
          {
            "fieldPath": "weld_final_width_strings_side1",
            "columnName": "weld_final_width_strings_side1",
            "affinity": "REAL",
            "notNull": false
          },
          {
            "fieldPath": "weld_final_width_strings_side2",
            "columnName": "weld_final_width_strings_side2",
            "affinity": "REAL",
            "notNull": false
          },
          {
            "fieldPath": "weld_dt_process_start",
            "columnName": "weld_dt_process_start",
            "affinity": "INTEGER",
            "notNull": false
          },
          {
            "fieldPath": "weld_dt_process_end",
            "columnName": "weld_dt_process_end",
            "affinity": "INTEGER",
            "notNull": false
          },
          {
            "fieldPath": "equipment_condition",
            "columnName": "equipment_condition",
            "affinity": "TEXT",
            "notNull": false
          },
          {
            "fieldPath": "report_weld_approved",
            "columnName": "report_weld_approved",
            "affinity": "INTEGER",
            "notNull": false
          },
          {
            "fieldPath": "dt_aborted",
            "columnName": "dt_aborted",
            "affinity": "INTEGER",
            "notNull": false
          },
          {
            "fieldPath": "aborted_report_reason",
            "columnName": "aborted_report_reason",
            "affinity": "TEXT",
            "notNull": false
          },
          {
            "fieldPath": "dt_finished",
            "columnName": "dt_finished",
            "affinity": "INTEGER",
            "notNull": false
          },
          {
            "fieldPath": "dt_created",
            "columnName": "dt_created",
            "affinity": "INTEGER",
            "notNull": false
          },
          {
            "fieldPath": "dt_modified",
            "columnName": "dt_modified",
            "affinity": "INTEGER",
            "notNull": false
          }
        ],
        "primaryKey": {
          "columnNames": [
            "id"
          ],
          "autoGenerate": false
        },
        "indices": [
          {
            "name": "index_ReportFusion_id",
            "unique": false,
            "columnNames": [
              "id"
            ],
            "createSql": "CREATE INDEX IF NOT EXISTS `index_ReportFusion_id` ON `${TABLE_NAME}` (`id`)"
          },
          {
            "name": "index_ReportFusion_user_id",
            "unique": false,
            "columnNames": [
              "user_id"
            ],
            "createSql": "CREATE INDEX IF NOT EXISTS `index_ReportFusion_user_id` ON `${TABLE_NAME}` (`user_id`)"
          }
        ],
        "foreignKeys": [
          {
            "table": "User",
            "onDelete": "NO ACTION",
            "onUpdate": "NO ACTION",
            "columns": [
              "user_id"
            ],
            "referencedColumns": [
              "id"
            ]
          }
        ]
      },
      {
        "tableName": "WeldType",
        "createSql": "CREATE TABLE IF NOT EXISTS `${TABLE_NAME}` (`id` TEXT NOT NULL, `description` TEXT, `dt_created` INTEGER, `dt_modified` INTEGER, PRIMARY KEY(`id`))",
        "fields": [
          {
            "fieldPath": "id",
            "columnName": "id",
            "affinity": "TEXT",
            "notNull": true
          },
          {
            "fieldPath": "description",
            "columnName": "description",
            "affinity": "TEXT",
            "notNull": false
          },
          {
            "fieldPath": "dt_created",
            "columnName": "dt_created",
            "affinity": "INTEGER",
            "notNull": false
          },
          {
            "fieldPath": "dt_modified",
            "columnName": "dt_modified",
            "affinity": "INTEGER",
            "notNull": false
          }
        ],
        "primaryKey": {
          "columnNames": [
            "id"
          ],
          "autoGenerate": false
        },
        "indices": [
          {
            "name": "index_WeldType_id",
            "unique": false,
            "columnNames": [
              "id"
            ],
            "createSql": "CREATE INDEX IF NOT EXISTS `index_WeldType_id` ON `${TABLE_NAME}` (`id`)"
          }
        ],
        "foreignKeys": []
      },
      {
        "tableName": "ProcedureType",
        "createSql": "CREATE TABLE IF NOT EXISTS `${TABLE_NAME}` (`id` TEXT NOT NULL, `description` TEXT, `dt_created` INTEGER, `dt_modified` INTEGER, PRIMARY KEY(`id`))",
        "fields": [
          {
            "fieldPath": "id",
            "columnName": "id",
            "affinity": "TEXT",
            "notNull": true
          },
          {
            "fieldPath": "description",
            "columnName": "description",
            "affinity": "TEXT",
            "notNull": false
          },
          {
            "fieldPath": "dt_created",
            "columnName": "dt_created",
            "affinity": "INTEGER",
            "notNull": false
          },
          {
            "fieldPath": "dt_modified",
            "columnName": "dt_modified",
            "affinity": "INTEGER",
            "notNull": false
          }
        ],
        "primaryKey": {
          "columnNames": [
            "id"
          ],
          "autoGenerate": false
        },
        "indices": [
          {
            "name": "index_ProcedureType_id",
            "unique": false,
            "columnNames": [
              "id"
            ],
            "createSql": "CREATE INDEX IF NOT EXISTS `index_ProcedureType_id` ON `${TABLE_NAME}` (`id`)"
          }
        ],
        "foreignKeys": []
      },
      {
        "tableName": "MaterialType",
        "createSql": "CREATE TABLE IF NOT EXISTS `${TABLE_NAME}` (`id` TEXT NOT NULL, `description` TEXT, `dt_created` INTEGER, `dt_modified` INTEGER, PRIMARY KEY(`id`))",
        "fields": [
          {
            "fieldPath": "id",
            "columnName": "id",
            "affinity": "TEXT",
            "notNull": true
          },
          {
            "fieldPath": "description",
            "columnName": "description",
            "affinity": "TEXT",
            "notNull": false
          },
          {
            "fieldPath": "dt_created",
            "columnName": "dt_created",
            "affinity": "INTEGER",
            "notNull": false
          },
          {
            "fieldPath": "dt_modified",
            "columnName": "dt_modified",
            "affinity": "INTEGER",
            "notNull": false
          }
        ],
        "primaryKey": {
          "columnNames": [
            "id"
          ],
          "autoGenerate": false
        },
        "indices": [
          {
            "name": "index_MaterialType_id",
            "unique": false,
            "columnNames": [
              "id"
            ],
            "createSql": "CREATE INDEX IF NOT EXISTS `index_MaterialType_id` ON `${TABLE_NAME}` (`id`)"
          }
        ],
        "foreignKeys": []
      },
      {
        "tableName": "EvidenceType",
        "createSql": "CREATE TABLE IF NOT EXISTS `${TABLE_NAME}` (`id` TEXT NOT NULL, `code` TEXT, `dt_created` INTEGER, `dt_modified` INTEGER, PRIMARY KEY(`id`))",
        "fields": [
          {
            "fieldPath": "id",
            "columnName": "id",
            "affinity": "TEXT",
            "notNull": true
          },
          {
            "fieldPath": "code",
            "columnName": "code",
            "affinity": "TEXT",
            "notNull": false
          },
          {
            "fieldPath": "dt_created",
            "columnName": "dt_created",
            "affinity": "INTEGER",
            "notNull": false
          },
          {
            "fieldPath": "dt_modified",
            "columnName": "dt_modified",
            "affinity": "INTEGER",
            "notNull": false
          }
        ],
        "primaryKey": {
          "columnNames": [
            "id"
          ],
          "autoGenerate": false
        },
        "indices": [
          {
            "name": "index_EvidenceType_id",
            "unique": false,
            "columnNames": [
              "id"
            ],
            "createSql": "CREATE INDEX IF NOT EXISTS `index_EvidenceType_id` ON `${TABLE_NAME}` (`id`)"
          }
        ],
        "foreignKeys": []
      },
      {
        "tableName": "EquipmentModel",
        "createSql": "CREATE TABLE IF NOT EXISTS `${TABLE_NAME}` (`id` TEXT NOT NULL, `equipment_manufacturer_id` TEXT, `description` TEXT, `piston_area` REAL, `dt_created` INTEGER, `dt_modified` INTEGER, PRIMARY KEY(`id`), FOREIGN KEY(`equipment_manufacturer_id`) REFERENCES `EquipmentManufacturer`(`id`) ON UPDATE NO ACTION ON DELETE NO ACTION )",
        "fields": [
          {
            "fieldPath": "id",
            "columnName": "id",
            "affinity": "TEXT",
            "notNull": true
          },
          {
            "fieldPath": "equipment_manufacturer_id",
            "columnName": "equipment_manufacturer_id",
            "affinity": "TEXT",
            "notNull": false
          },
          {
            "fieldPath": "description",
            "columnName": "description",
            "affinity": "TEXT",
            "notNull": false
          },
          {
            "fieldPath": "piston_area",
            "columnName": "piston_area",
            "affinity": "REAL",
            "notNull": false
          },
          {
            "fieldPath": "dt_created",
            "columnName": "dt_created",
            "affinity": "INTEGER",
            "notNull": false
          },
          {
            "fieldPath": "dt_modified",
            "columnName": "dt_modified",
            "affinity": "INTEGER",
            "notNull": false
          }
        ],
        "primaryKey": {
          "columnNames": [
            "id"
          ],
          "autoGenerate": false
        },
        "indices": [
          {
            "name": "index_EquipmentModel_id",
            "unique": false,
            "columnNames": [
              "id"
            ],
            "createSql": "CREATE INDEX IF NOT EXISTS `index_EquipmentModel_id` ON `${TABLE_NAME}` (`id`)"
          },
          {
            "name": "index_EquipmentModel_equipment_manufacturer_id",
            "unique": false,
            "columnNames": [
              "equipment_manufacturer_id"
            ],
            "createSql": "CREATE INDEX IF NOT EXISTS `index_EquipmentModel_equipment_manufacturer_id` ON `${TABLE_NAME}` (`equipment_manufacturer_id`)"
          }
        ],
        "foreignKeys": [
          {
            "table": "EquipmentManufacturer",
            "onDelete": "NO ACTION",
            "onUpdate": "NO ACTION",
            "columns": [
              "equipment_manufacturer_id"
            ],
            "referencedColumns": [
              "id"
            ]
          }
        ]
      },
      {
        "tableName": "EquipmentManufacturer",
        "createSql": "CREATE TABLE IF NOT EXISTS `${TABLE_NAME}` (`id` TEXT NOT NULL, `description` TEXT, `dt_created` INTEGER, `dt_modified` INTEGER, PRIMARY KEY(`id`))",
        "fields": [
          {
            "fieldPath": "id",
            "columnName": "id",
            "affinity": "TEXT",
            "notNull": true
          },
          {
            "fieldPath": "description",
            "columnName": "description",
            "affinity": "TEXT",
            "notNull": false
          },
          {
            "fieldPath": "dt_created",
            "columnName": "dt_created",
            "affinity": "INTEGER",
            "notNull": false
          },
          {
            "fieldPath": "dt_modified",
            "columnName": "dt_modified",
            "affinity": "INTEGER",
            "notNull": false
          }
        ],
        "primaryKey": {
          "columnNames": [
            "id"
          ],
          "autoGenerate": false
        },
        "indices": [
          {
            "name": "index_EquipmentManufacturer_id",
            "unique": false,
            "columnNames": [
              "id"
            ],
            "createSql": "CREATE INDEX IF NOT EXISTS `index_EquipmentManufacturer_id` ON `${TABLE_NAME}` (`id`)"
          }
        ],
        "foreignKeys": []
      },
      {
        "tableName": "EquipmentCondition",
        "createSql": "CREATE TABLE IF NOT EXISTS `${TABLE_NAME}` (`id` TEXT NOT NULL, `description` TEXT, `dt_created` INTEGER, `dt_modified` INTEGER, PRIMARY KEY(`id`))",
        "fields": [
          {
            "fieldPath": "id",
            "columnName": "id",
            "affinity": "TEXT",
            "notNull": true
          },
          {
            "fieldPath": "description",
            "columnName": "description",
            "affinity": "TEXT",
            "notNull": false
          },
          {
            "fieldPath": "dt_created",
            "columnName": "dt_created",
            "affinity": "INTEGER",
            "notNull": false
          },
          {
            "fieldPath": "dt_modified",
            "columnName": "dt_modified",
            "affinity": "INTEGER",
            "notNull": false
          }
        ],
        "primaryKey": {
          "columnNames": [
            "id"
          ],
          "autoGenerate": false
        },
        "indices": [
          {
            "name": "index_EquipmentCondition_id",
            "unique": false,
            "columnNames": [
              "id"
            ],
            "createSql": "CREATE INDEX IF NOT EXISTS `index_EquipmentCondition_id` ON `${TABLE_NAME}` (`id`)"
          }
        ],
        "foreignKeys": []
      }
    ],
    "views": [],
    "setupQueries": [
      "CREATE TABLE IF NOT EXISTS room_master_table (id INTEGER PRIMARY KEY,identity_hash TEXT)",
      "INSERT OR REPLACE INTO room_master_table (id,identity_hash) VALUES(42, 'e759f3b7ccb7707dbb7ed51b2ffd2e9c')"
    ]
  }
}